<?xml version="1.0" encoding="iso-8859-1"?>
<!-- Generator: Adobe Illustrator 18.1.1, SVG Export Plug-In . SVG Version: 6.00 Build 0)  -->
<svg version="1.1" id="Capa_1" xmlns="http://www.w3.org/2000/svg" xmlns:xlink="http://www.w3.org/1999/xlink" x="0px" y="0px" width="32px" height="32px"
	 viewBox="0 0 576.507 576.507" style="enable-background:new 0 0 576.507 576.507;" xml:space="preserve">
<g>
	<g>
		<path style="fill:#010002;" d="M415.548,24.481c22.032,0,42.738,4.182,62.118,12.546s36.414,19.89,51.102,34.578
			s26.316,31.824,34.887,51.408c8.565,19.584,12.852,40.392,12.852,62.424c0,24.072-2.55,45.798-7.65,65.178
			c-5.1,19.38-11.729,37.026-19.89,52.938c-8.16,15.912-17.136,30.293-26.928,43.146c-9.792,12.852-19.38,24.988-28.767,36.414
			l-7.953,9.18c-7.347,8.975-16.935,18.971-28.767,29.988c-11.832,11.016-24.479,22.232-37.941,33.658
			c-13.467,11.426-27.03,22.543-40.698,33.355c-13.668,10.811-26.214,20.4-37.641,28.764c-11.424,8.363-20.907,15.303-28.458,20.811
			c-7.548,5.508-11.729,8.67-12.546,9.482c-3.264,2.449-6.936,3.676-11.016,3.676c-4.488,0-8.16-1.227-11.016-3.676
			c-1.224-0.813-5.508-3.977-12.852-9.482c-7.344-5.508-16.728-12.445-28.152-20.811c-11.424-8.361-23.97-17.951-37.638-28.764
			s-27.234-21.93-40.698-33.355s-26.112-22.645-37.944-33.658c-11.832-11.02-21.42-21.016-28.764-29.988l-7.956-9.18
			c-9.384-11.426-18.972-23.563-28.764-36.414c-9.792-12.855-18.768-27.234-26.928-43.146s-14.79-33.558-19.89-52.938
			C2.55,231.235,0,209.509,0,185.437c0-22.032,4.284-42.84,12.852-62.424s20.196-36.72,34.884-51.408s31.722-26.214,51.102-34.578
			s40.086-12.546,62.118-12.546c25.704,0,49.572,5.61,71.604,16.83s40.596,26.622,55.692,46.206
			c15.096-19.584,33.66-34.986,55.692-46.206C365.976,30.091,389.844,24.481,415.548,24.481z"/>
	</g>
</g>
<g>
</g>
<g>
</g>
<g>
</g>
<g>
</g>
<g>
</g>
<g>
</g>
<g>
</g>
<g>
</g>
<g>
</g>
<g>
</g>
<g>
</g>
<g>
</g>
<g>
</g>
<g>
</g>
<g>
</g>
</svg>
